FigureYa254scViolin
…
ggsave("scViolin_color.pdf", width = 9, height = 7)

加强版

借助ggpubr加上pvalue或显著性星标*，分面加pvalue的方法参考了这篇https://www.datanovia.com/en/blog/how-to-add-p-values-to-ggplot-facets/

stat.test <- df %>% 
  group_by(cluster_short, gene) %>% 
  t_test(expression ~ aging) %>%
  adjust_pvalue(method = "bonferroni") %>% 
  add_significance()

stat.test

## # A tibble: 49 × 12
##    cluster_short gene   .y.    group1 group2    n1    n2 statistic    df       p
##  * <fct>         <fct>  <chr>  <chr>  <chr>  <int> <int>     <dbl> <dbl>   <dbl>
##  1 OO            DDX4   expre… Y      O        191   227  -1.96     306. 5.14e-2
##  2 OO            AMH    expre… Y      O        191   227  -0.888    415. 3.75e-1
##  3 OO            COL1A2 expre… Y      O        191   227  -2.72     410. 6.76e-3
##  4 OO            ACTG2  expre… Y      O        191   227  -0.00534  406. 9.96e-1
##  5 OO            CDH5   expre… Y      O        191   227   0.144    394. 8.86e-1
##  6 OO            KLRB1  expre… Y      O        191   227  -1.79     293. 7.39e-2
##  7 OO            CD163  expre… Y      O        191   227  -1.38     415. 1.69e-1
##  8 GC            DDX4   expre… Y      O        209   149  -1.09     343. 2.75e-1
##  9 GC            AMH    expre… Y      O        209   149  -0.202    298. 8.4 e-1
## 10 GC            COL1A2 expre… Y      O        209   149   4.85     336. 1.92e-6
## # … with 39 more rows, and 2 more variables: p.adj <dbl>, p.adj.signif <chr>
…
